avdec_dsd_lsbf properties:
min-latency                   : Int64. Range 0 - 9223372036854775807. Default: 0
name                          : String. Default: avdec_dsd_lsbf0
parent                        : Object of type GstObject.
plc                           : Boolean. Default: false
tolerance                     : Int64. Range 0 - 9223372036854775807. Default: 0
