avdeinterlace properties:
mode                          : Enum GstLibAVDeinterlaceModes. Default: 0, auto
name                          : String. Default: ffmpegdeinterlace0
parent                        : Object of type GstObject.
