avenc_rv10 properties:
b-qfactor                     : Float. Range -3.4e+38 - 3.4e+38. Default: 1.2
b-qoffset                     : Float. Range -3.4e+38 - 3.4e+38. Default: 1.2
b-sensitivity                 : Int. Range 1 - 2147483647. Default: 40
b-strategy                    : Int. Range 0 - 2. Default: 0
bidir-refine                  : Int. Range 0 - 4. Default: 1
bitrate                       : Int64. Range 0 - 9223372036854775807. Default: 200000
bitrate-tolerance             : Int. Range 1 - 2147483647. Default: 4000000
border-mask                   : Float. Range -3.4e+38 - 3.4e+38. Default: 0
brd-scale                     : Int. Range 0 - 3. Default: 0
bufsize                       : Int. Range -2147483648 - 2147483647. Default: 0
chroma-elim-threshold         : Int. Range -2147483648 - 2147483647. Default: 0
chroma-sample-location        : Enum avcodeccontext-chroma-sample-location-type. Default: 0, unknown
chromaoffset                  : Int. Range -2147483648 - 2147483647. Default: 0
cmp                           : Enum avcodeccontext-cmp-func. Default: 0, sad
coder                         : Enum avcodeccontext-coder. Default: 0, vlc
compression-level             : Int. Range -2147483648 - 2147483647. Default: -1
context                       : Int. Range -2147483648 - 2147483647. Default: 0
dark-mask                     : Float. Range -3.4e+38 - 3.4e+38. Default: 0
dc                            : Int. Range -8 - 16. Default: 0
dct                           : Enum avcodeccontext-dct. Default: 0, auto
debug                         : Flags avcodeccontext-debug. Default: 0, (none)
dia-size                      : Int. Range -2147483648 - 2147483647. Default: 0
dump-separator                : String. Default: (null)
error-rate                    : Int. Range 0 - 2147483647. Default: 0
field-order                   : Enum avcodeccontext-field-order. Default: 0, unknown
flags                         : Flags avcodeccontext-flags. Default: 0, (none)
flags2                        : Flags avcodeccontext-flags2. Default: 0, (none)
force-duplicated-matrix       : Boolean. Default: false
global-quality                : Int. Range -2147483648 - 2147483647. Default: 0
gop-size                      : Int. Range -2147483648 - 2147483647. Default: 12
i-qfactor                     : Float. Range -3.4e+38 - 3.4e+38. Default: -0.8
i-qoffset                     : Float. Range -3.4e+38 - 3.4e+38. Default: 0
ibias                         : Int. Range -2147483648 - 2147483647. Default: 999999
idct                          : Enum avcodeccontext-idct. Default: 0, auto
ildctcmp                      : Enum avcodeccontext-cmp-func. Default: 8, vsad
keyint-min                    : Int. Range -2147483648 - 2147483647. Default: 25
last-pred                     : Int. Range -2147483648 - 2147483647. Default: 0
lmax                          : Int. Range 0 - 2147483647. Default: 3658
lmin                          : Int. Range 0 - 2147483647. Default: 236
luma-elim-threshold           : Int. Range -2147483648 - 2147483647. Default: 0
lumi-mask                     : Float. Range -3.4e+38 - 3.4e+38. Default: 0
max-bframes                   : Int. Range -1 - 2147483647. Default: 0
max-pixels                    : Int64. Range 0 - 2147483647. Default: 2147483647
maxrate                       : Int64. Range 0 - 2147483647. Default: 0
mbcmp                         : Enum avcodeccontext-cmp-func. Default: 0, sad
mbd                           : Enum avcodeccontext-mbd. Default: 0, simple
mblmax                        : Int. Range 1 - 32767. Default: 3658
mblmin                        : Int. Range 1 - 32767. Default: 236
me-range                      : Int. Range -2147483648 - 2147483647. Default: 0
mepc                          : Int. Range -2147483648 - 2147483647. Default: 256
mepre                         : Int. Range -2147483648 - 2147483647. Default: 0
minrate                       : Int64. Range -2147483648 - 2147483647. Default: 0
motion-est                    : Enum rv10-encoder-motion-est. Default: 1, epzs
mpeg-quant                    : Int. Range 0 - 1. Default: 0
mpv-flags                     : Flags rv10-encoder-mpv-flags. Default: 0, (none)
multipass-cache-file          : String. Default: stats.log
mv0-threshold                 : Int. Range 0 - 2147483647. Default: 256
name                          : String. Default: avenc_rv10-0
noise-reduction               : Int. Range -2147483648 - 2147483647. Default: 0
nr                            : Int. Range -2147483648 - 2147483647. Default: 0
nssew                         : Int. Range -2147483648 - 2147483647. Default: 8
p-mask                        : Float. Range -3.4e+38 - 3.4e+38. Default: 0
parent                        : Object of type GstObject.
pass                          : Enum GstLibAVEncPass. Default: 0, cbr
pbias                         : Int. Range -2147483648 - 2147483647. Default: 999999
pre-dia-size                  : Int. Range -2147483648 - 2147483647. Default: 0
precmp                        : Enum avcodeccontext-cmp-func. Default: 0, sad
pred                          : Enum avcodeccontext-pred. Default: 0, left
preme                         : Int. Range -2147483648 - 2147483647. Default: 0
ps                            : Int. Range -2147483648 - 2147483647. Default: 0
qblur                         : Float. Range -1 - 3.4e+38. Default: 0.5
qcomp                         : Float. Range -3.4e+38 - 3.4e+38. Default: 0.5
qdiff                         : Int. Range -2147483648 - 2147483647. Default: 3
qmax                          : Int. Range -1 - 1024. Default: 31
qmin                          : Int. Range -1 - 69. Default: 2
qos                           : Boolean. Default: false
qsquish                       : Float. Range 0 - 99. Default: 0
quantizer                     : Float. Range 0 - 30. Default: 0.01
quantizer-noise-shaping       : Int. Range 0 - 2147483647. Default: 0
rc-buf-aggressivity           : Float. Range -3.4e+38 - 3.4e+38. Default: 1
rc-eq                         : String. Default: (null)
rc-init-cplx                  : Float. Range -3.4e+38 - 3.4e+38. Default: 0
rc-init-occupancy             : Int. Range -2147483648 - 2147483647. Default: 0
rc-max-vbv-use                : Float. Range 0 - 3.4e+38. Default: 0
rc-min-vbv-use                : Float. Range 0 - 3.4e+38. Default: 3
rc-qmod-amp                   : Float. Range -3.4e+38 - 3.4e+38. Default: 0
rc-qmod-freq                  : Int. Range -2147483648 - 2147483647. Default: 0
rc-strategy                   : Enum rv10-encoder-rc-strategy. Default: 0, ffmpeg
refs                          : Int. Range -2147483648 - 2147483647. Default: 1
sc-threshold                  : Int. Range -2147483648 - 2147483647. Default: 0
scplx-mask                    : Float. Range -3.4e+38 - 3.4e+38. Default: 0
side-data-only-packets        : Boolean. Default: true
skip-cmp                      : Enum rv10-encoder-cmp-func. Default: 13, dctmax
skip-exp                      : Int. Range -2147483648 - 2147483647. Default: 0
skip-factor                   : Int. Range -2147483648 - 2147483647. Default: 0
skip-threshold                : Int. Range -2147483648 - 2147483647. Default: 0
skipcmp                       : Enum avcodeccontext-cmp-func. Default: 13, dctmax
slices                        : Int. Range 0 - 2147483647. Default: 0
strict                        : Enum avcodeccontext-strict. Default: 0, normal
subcmp                        : Enum avcodeccontext-cmp-func. Default: 0, sad
subq                          : Int. Range -2147483648 - 2147483647. Default: 8
tcplx-mask                    : Float. Range -3.4e+38 - 3.4e+38. Default: 0
thread-type                   : Flags avcodeccontext-thread-type. Default: 3, slice+frame
threads                       : Enum avcodeccontext-threads. Default: 1, unknown
ticks-per-frame               : Int. Range 1 - 2147483647. Default: 1
timecode-frame-start          : Int64. Range -1 - 9223372036854775807. Default: -1
trellis                       : Int. Range -2147483648 - 2147483647. Default: 0
